{
  "admin": [
    "query.query_menu",
    "query.interview",
    "query.vacancy",
    "query.young_employee",
    "query.employee",
    "auth.login_page",
    "process.process_menu",
    "process.vacancy",
    "process.candidate",
    "process.interview",
    ""
  ],
  "chief": [
    "query.query_menu",
    "query.interview",
    "query.vacancy",
    "query.young_employee",
    "query.employee",
    "auth.login_page",
    ""
  ],
  "hr": [
    "auth.login_page",
    "process.process_menu",
    "process.vacancy",
    "process.candidate",
    "process.interview",
    ""
  ],
  "unauthorized": [
    "auth.login_page"
  ]
}